[
    {
        "type": "profession",
        "id": "knight",
        "name": "Knight",
        "description": "You was a respectful Middle Age noble in the middle of a tournament.",
        "points": 2,
        "items": {
            "both": {
                "items": [ "footrags", "loincloth", "gloves_wraps", "chainmail_hauberk", "helmet_liner", "chainmail_hands", "chainmail_feet", "helmet_plate" ],
                "entries": [ { "item": "longsword", "container-item": "baldric" } ]
            },
            "female": [ "chestwrap" ]
        },
        "skills": [
            { "level": 3, "name": "melee" },
            { "level": 3, "name": "cutting"},
            { "level": 3, "name": "dodge"},
            { "level": 3, "name": "stabbing"},
            { "level": 1, "name": "throw" },
            { "level": 1, "name": "survival" }
        ],
        "traits": [ "MARTIAL_ARTS5" ]
    }
]