[
    {
        "type": "scenario",
        "id": "medieval",
        "name": "Challenge - Medieval Peasant",
        "points": -8,
        "description": "Som nigromancie hath brought yow hidder!  Ye have only the hoose on youre legges and the knyf at youre syde and youre prayeres to Marie moder of God.",
        "start_name": "Wilderness",
        "allowed_locs": [ "sloc_forest", "sloc_field" ],
        "professions": [ "churl", "knight" ],
        "forced_traits": [ "ILLITERATE", "ANTIJUNK", "STRONGSTOMACH", "SPIRITUAL", "WAYFARER" ],
        "forbidden_traits": [ "FASTREADER", "SLOWREADER" ],
        "flags": [ "CHALLENGE", "LONE_START" ]
    }
]